xprctl create_project -f /home/gagandeep.chhabra/projects/xpresso/xpresso.ai/samples/samples_stroke/1_cp.json
xprctl build_project -f /home/gagandeep.chhabra/projects/xpresso/xpresso.ai/samples/samples_stroke/2_bp.json
xprctl deploy_project -f /home/gagandeep.chhabra/projects/xpresso/xpresso.ai/samples/samples_stroke/3_dp.json
xprctl start_experiment -f /home/gagandeep.chhabra/projects/xpresso/xpresso.ai/samples/samples_stroke/4_se.json
xprctl deploy_project -f /home/gagandeep.chhabra/projects/xpresso/xpresso.ai/samples/samples_stroke/5_dme.json

**********************************************************************
ssh xprops@172.16.2.10
jupyter notebook --port=8899 --ip=0.0.0.0 --no-browser --allow-root
https://abzooba.atlassian.net/wiki/spaces/XP/pages/891715630/Data+Exploration+-+Structured+Data
/home/xprops/Spark_demo/Demo_Distributed_EDA.ipynb

**********************************************************************

CC@
	http://172.16.6.51:30735/
Power user:
	controlcenter@xpresso.in
	Control123!@#
test user:
	test@xpresso.ai
	abz00ba1nc1

Individual dashboards:

**********************************************************************
https://uni-siegen.sciebo.de/s/pYjSgfOVs6Ntahr/download

**********************************************************************
# login here
%run -i /opt/xpresso.ai/scripts/python/xp_login.py qa gagandeep.chhabra

**********************************************************************
