{
    "experiments": [
    {
        "project_name": "heart_stroke_predictor_7",
        "pipeline_name": "feature_engg_and_classifier_pipeline",
        "pipeline_version": 1,
        "run_name": "heart_stroke_predictor_7_1"
    },
    {
        "project_name": "heart_stroke_predictor_7",
        "pipeline_version": 1,
        "pipeline_name": "feature_engg_and_classifier_pipeline",
        "run_name": "heart_stroke_predictor_7_2"
    }
    ]
}
