{
   "name":"heart_stroke_predictor_2",
   "components":{
      "model_evaluation":{
         "branch":"master",
         "description":"build from master with stroke predictor."
      }
   },
   "pipelines": {
      "feature_engg_and_classifier_pipeline": {
         "branch":"master",
         "description": "build from master with stroke predictor."
      }
   }
}
