{
   "run_name":"kaggle_stroke_predictor_11b",
   "project_name":"kaggle_stroke_predictor",
   "pipeline_name":"feature_engg_and_classifier_pipeline",
   "pipeline_flavor":"pyspark",
   "pipeline_version":11,

   "run_parameters":{
      "driver_memory":"512m",
      "executor_memory":"512m",
      "executor_cores":"1",
      "num_executors":1,

      "model_param_numTrees":"6",
      "model_param_maxDepth":"6"
   }
}
