{
   "name":"kaggle_stroke_predictor",
   "target_environment":"DEV",
   "components":{
      "model_evaluation":{
         "build_version" : 15,
         "run_parameters":{
            "driver_memory":"512m",
            "executor_memory":"512m",
            "executor_cores":1,
            "num_executors":1,
            "xpresso_run_name":"kaggle_stroke_predictor_11a__kaggle_stroke_predictor__feature_engg_and_classifier_pipeline__11"
         }
      }
   }
}
